…
The original data also contains bumblebees, but the BMS only wants
butterflies, so we subset the data. This is of course optional. This
subset could also have been performed at a later stage, but it is more
efficient to do it at this stage.

``` r
lepiRaw <- occurrenceRaw %>% 
  filter(order == "Lepidoptera") %>% 
  collect()

lepiRaw
```

    ## # A tibble: 3,056,525 x 19
    ##    id    modified            basisOfRecord occurrenceID individualCount sex  
    ##    <chr> <dttm>              <chr>         <chr>                  <dbl> <lgl>
    ##  1 7734… 2020-04-20 11:53:51 HumanObserva… f37a5321-ff…               0 NA   
    ##  2 7734… 2020-04-20 11:53:51 HumanObserva… ff3a563a-07…               0 NA   
    ##  3 7734… 2020-06-05 13:26:53 HumanObserva… e357de4a-56…               0 NA   
    ##  4 7734… 2020-04-20 11:53:51 HumanObserva… df17a4bc-1c…               0 NA   
    ##  5 7734… 2020-04-20 11:53:51 HumanObserva… ff9188a9-67…               0 NA   
    ##  6 7734… 2021-07-01 08:58:24 HumanObserva… be1fddc5-14…               0 NA   
    ##  7 7734… 2020-04-20 11:53:51 HumanObserva… c0499825-23…               0 NA   
    ##  8 7734… 2020-04-20 11:53:51 HumanObserva… b58de6a9-02…               0 NA   
    ##  9 7734… 2021-07-01 08:58:24 HumanObserva… bbaa3924-fe…               0 NA   
    ## 10 7734… 2021-07-01 08:58:24 HumanObserva… d687da1d-f9…               0 NA   
    ## # … with 3,056,515 more rows, and 13 more variables: lifeStage <chr>,
    ## #   occurrenceStatus <chr>, eventID <chr>, taxonID <chr>, scientificName <chr>,
    ## #   kingdom <chr>, phylum <chr>, class <chr>, order <chr>, family <chr>,
    ## #   genus <chr>, specificEpithet <chr>, vernacularName <chr>
…
``` r
sectionEvent <- sectionEvent %>% 
    separate(eventTime, 
           c("start_time", "end_time"), 
           sep = "/") %>% 
  mutate(start_time = as.POSIXct(start_time),
         end_time = as.POSIXct(end_time))


sectionEvent %>% 
  select(start_time,
         end_time)
```

    ## # A tibble: 29,675 x 2
    ##    start_time          end_time           
    ##    <dttm>              <dttm>             
    ##  1 2016-06-28 15:12:00 2016-06-28 15:18:00
    ##  2 2011-05-10 11:49:00 2011-05-10 11:52:00
    ##  3 2018-06-23 15:12:00 2018-06-23 15:18:00
    ##  4 2009-06-23 15:53:00 2009-06-23 15:57:00
    ##  5 2012-07-27 14:54:00 2012-07-27 14:59:00
    ##  6 2017-08-13 13:40:00 2017-08-13 13:42:00
    ##  7 2018-06-24 15:35:00 2018-06-24 15:43:00
    ##  8 NA                  NA                 
    ##  9 2017-06-05 12:50:00 2017-06-05 12:55:00
    ## 10 2014-05-01 13:48:00 2014-05-01 13:57:00
    ## # … with 29,665 more rows
…
``` r
transectEvent <- transectEventRaw %>% 
    collect() %>% 
      separate(eventTime, 
           c("start_time", "end_time"), 
           sep = "/") %>% 
  mutate(start_time = as.POSIXct(start_time),
         end_time = as.POSIXct(end_time)) 

transectEvent %>% 
  select(start_time,
         end_time)
```

    ## # A tibble: 1,506 x 2
    ##    start_time          end_time           
    ##    <dttm>              <dttm>             
    ##  1 2011-06-30 14:55:00 2011-06-30 16:14:00
    ##  2 2013-07-20 12:15:00 2013-07-20 13:20:00
    ##  3 2016-06-09 13:00:00 2016-06-09 17:30:00
    ##  4 2011-08-03 13:10:00 2011-08-03 14:30:00
    ##  5 2014-05-22 12:30:00 2014-05-22 14:30:00
    ##  6 2014-07-10 14:54:00 2014-07-10 16:38:00
    ##  7 2019-06-29 13:30:00 2019-06-29 14:30:00
    ##  8 2015-06-12 11:00:00 2015-06-12 14:11:00
    ##  9 2019-06-11 12:00:00 2019-06-11 14:31:00
    ## 10 2018-05-18 15:30:00 2018-05-18 17:11:00
    ## # … with 1,496 more rows
…
``` r
lepiCountTab <- lepiCountTab %>% 
  mutate(species_name = ifelse(species_name == 'Colias croceus', 'Colias crocea', species_name))
```

The butterfly count table is now ready.

``` r
lepiCountTab
```

    ## # A tibble: 3,056,525 x 6
    ##    visit_ID    transect_ID   section_ID   date                species_name count
    ##    <chr>       <chr>         <chr>        <dttm>              <chr>        <dbl>
    ##  1 00161ef1-3… 20cb4183-069… 04901d87-48… 2011-06-30 00:00:00 Adscita sta…     0
    ##  2 00161ef1-3… 20cb4183-069… 04901d87-48… 2011-06-30 00:00:00 Aglais io        0
    ##  3 00161ef1-3… 20cb4183-069… 04901d87-48… 2011-06-30 00:00:00 Aglais urti…     0
    ##  4 00161ef1-3… 20cb4183-069… 04901d87-48… 2011-06-30 00:00:00 Agriades aq…     0
    ##  5 00161ef1-3… 20cb4183-069… 04901d87-48… 2011-06-30 00:00:00 Agriades op…     0
    ##  6 00161ef1-3… 20cb4183-069… 04901d87-48… 2011-06-30 00:00:00 Agriades or…     0
    ##  7 00161ef1-3… 20cb4183-069… 04901d87-48… 2011-06-30 00:00:00 Anthocharis…     0
    ##  8 00161ef1-3… 20cb4183-069… 04901d87-48… 2011-06-30 00:00:00 Aphantopus …     0
    ##  9 00161ef1-3… 20cb4183-069… 04901d87-48… 2011-06-30 00:00:00 Aporia crat…     0
    ## 10 00161ef1-3… 20cb4183-069… 04901d87-48… 2011-06-30 00:00:00 Argynnis pa…     0
    ## # … with 3,056,515 more rows
…
monVisTabSection
```

    ## # A tibble: 29,675 x 11
    ##    visit_ID recorder_id transect_ID section date                start_time
    ##    <chr>    <chr>       <chr>       <chr>   <dttm>              <chr>     
    ##  1 e5b7974… 2f0ccd4f-a… d53aef1f-7… dfb927… 2013-05-26 00:00:00 11:20:00  
    ##  2 6c70518… 2f0ccd4f-a… d53aef1f-7… dfb927… 2013-07-23 00:00:00 11:45:00  
    ##  3 6c81a4a… 2f0ccd4f-a… d53aef1f-7… dfb927… 2014-06-01 00:00:00 17:36:00  
    ##  4 cac20b4… 2f0ccd4f-a… d53aef1f-7… dfb927… 2014-07-12 00:00:00 14:50:00  
    ##  5 cdb2134… 2f0ccd4f-a… d53aef1f-7… dfb927… 2014-08-27 00:00:00 12:10:00  
    ##  6 30792c0… 2f0ccd4f-a… d53aef1f-7… dfb927… 2015-07-04 00:00:00 12:00:00  
    ##  7 4f44d6d… 2f0ccd4f-a… d53aef1f-7… dfb927… 2015-08-13 00:00:00 14:30:00  
    ##  8 2689da3… 2f0ccd4f-a… d53aef1f-7… dfb927… 2016-05-27 00:00:00 15:55:00  
    ##  9 d413064… 2f0ccd4f-a… d53aef1f-7… dfb927… 2016-07-20 00:00:00 15:09:00  
    ## 10 3f292a1… 2f0ccd4f-a… d53aef1f-7… dfb927… 2017-06-27 00:00:00 15:37:00  
    ## # … with 29,665 more rows, and 5 more variables: end_time <chr>,
    ## #   temperature <dbl>, cloud <dbl>, wind <lgl>, completed <dbl>
…
    ## `summarise()` ungrouping output (override with `.groups` argument)

``` r
monVisTabTransect
```

    ## # A tibble: 1,506 x 10
    ##    visit_ID recorder_id transect_ID date                start_time end_time
    ##    <chr>    <chr>       <chr>       <dttm>              <chr>      <chr>   
    ##  1 00161ef… 9b98f4cf-9… 20cb4183-0… 2011-06-30 00:00:00 14:55:00   16:14:00
    ##  2 004d789… 76839443-4… cce42c93-e… 2013-07-20 00:00:00 12:15:00   13:20:00
    ##  3 005b7cf… fc6b9ecf-7… e0a3c18a-3… 2016-06-09 00:00:00 13:00:00   17:30:00
    ##  4 008d7ab… a939d930-1… e3756fff-2… 2011-08-03 00:00:00 13:10:00   14:30:00
    ##  5 009cf41… 6a478010-e… 911293b2-2… 2014-05-22 00:00:00 12:30:00   14:30:00
    ##  6 00ef24d… 99c120bf-8… 7bb92922-4… 2014-07-10 00:00:00 14:54:00   16:38:00
    ##  7 013b043… 2b780a04-1… a2834b8c-8… 2019-06-29 00:00:00 13:30:00   14:30:00
    ##  8 018d499… c2f4a043-e… ccf55543-4… 2015-06-12 00:00:00 11:00:00   14:11:00
    ##  9 01a22c7… c2f4a043-e… ccf55543-4… 2019-06-11 00:00:00 12:00:00   14:31:00
    ## 10 01a6668… a6495896-d… df94d08e-b… 2018-05-18 00:00:00 15:30:00   17:11:00
    ## # … with 1,496 more rows, and 4 more variables: temperature <dbl>, cloud <dbl>,
    ## #   wind <dbl>, completed <dbl>
…
#Register the centroid points as a geometry
tempSection <- siteGeoInfoTab %>% 
  st_as_sf(coords = c("decimalLongitude.section", "decimalLatitude.section"),
           crs = 4326)

tempSection
```

    ## Simple feature collection with 1851 features and 2 fields
    ## Active geometry column: footprintWKT.section
    ## geometry type:  LINESTRING
    ## dimension:      XY
    ## bbox:           xmin: 5.221364 ymin: 58.0589 xmax: 13.18196 ymax: 64.9271
    ## geographic CRS: WGS 84
    ## # A tibble: 1,851 x 6
    ##    transect_ID section      footprintWKT.section                     start
    ##  * <chr>       <chr>            <LINESTRING [°]>               <POINT [°]>
    ##  1 d53aef1f-7… dfb927… (5.221583 59.39742, 5.22…       (5.221583 59.39742)
    ##  2 d53aef1f-7… efc706… (5.221583 59.39742, 5.22…       (5.221583 59.39742)
    ##  3 d53aef1f-7… fff25b… (5.221911 59.39699, 5.22…       (5.221911 59.39699)
    ##  4 d53aef1f-7… 316c21… (5.223379 59.39645, 5.22…       (5.223379 59.39645)
    ##  5 d53aef1f-7… e07338… (5.224109 59.39617, 5.22…       (5.224109 59.39617)
    ##  6 d53aef1f-7… 34a6ae… (5.224726 59.39583, 5.22…       (5.224726 59.39583)
    ##  7 d53aef1f-7… 17696e… (5.225234 59.39545, 5.22…       (5.225234 59.39545)
    ##  8 d53aef1f-7… cc8b58… (5.225234 59.39545, 5.22…       (5.225234 59.39545)
    ##  9 d53aef1f-7… b191a5… (5.226234 59.39467, 5.22…       (5.226234 59.39467)
    ## 10 d53aef1f-7… 0628de… (5.226706 59.39428, 5.22…       (5.226706 59.39428)
    ## # … with 1,841 more rows, and 2 more variables: end <POINT [°]>,
    ## #   geometry <POINT>
…
siteGeoInfoTab
```

    ## # A tibble: 1,851 x 10
    ##    transect_ID section_ID lon_start_point lat_start_point lon_end_point
    ##    <chr>       <chr>                <dbl>           <dbl>         <dbl>
    ##  1 d53aef1f-7… dfb9272e-…            5.22            59.4          5.22
    ##  2 d53aef1f-7… efc706a7-…            5.22            59.4          5.22
    ##  3 d53aef1f-7… fff25b5b-…            5.22            59.4          5.22
    ##  4 d53aef1f-7… 316c2185-…            5.22            59.4          5.22
    ##  5 d53aef1f-7… e0733813-…            5.22            59.4          5.22
    ##  6 d53aef1f-7… 34a6aebd-…            5.22            59.4          5.22
    ##  7 d53aef1f-7… 17696e5a-…            5.23            59.4          5.22
    ##  8 d53aef1f-7… cc8b5806-…            5.23            59.4          5.23
    ##  9 d53aef1f-7… b191a51d-…            5.23            59.4          5.23
    ## 10 d53aef1f-7… 0628debb-…            5.23            59.4          5.23
    ## # … with 1,841 more rows, and 5 more variables: lat_end_point <dbl>,
    ## #   lon_centroid <dbl>, lat_centroid <dbl>, SRID_for_all_coordinates <dbl>,
    ## #   monitoring_type <dbl>
…
``` r
habTypeTab <- occTrans %>% 
  select(transect_ID = locationID.transect,
         section_ID = locationID.section,
         habitat_Type = habitatType
) %>% 
  distinct()

habTypeTab
```

    ## # A tibble: 1,834 x 3
    ##    transect_ID                      section_ID                      habitat_Type
    ##    <chr>                            <chr>                           <chr>       
    ##  1 d53aef1f-7502-4724-9be7-dd49f44… dfb9272e-be2a-4a7e-b882-4cc5a7… grassland   
    ##  2 d53aef1f-7502-4724-9be7-dd49f44… efc706a7-9cef-4199-b5bf-5f5b97… grassland   
    ##  3 d53aef1f-7502-4724-9be7-dd49f44… fff25b5b-7a7c-4fcc-a927-cb6047… grassland   
    ##  4 d53aef1f-7502-4724-9be7-dd49f44… 316c2185-30c1-4077-9f39-52cfe5… grassland   
    ##  5 d53aef1f-7502-4724-9be7-dd49f44… e0733813-696e-4ec5-9986-d98fe0… grassland   
    ##  6 d53aef1f-7502-4724-9be7-dd49f44… 34a6aebd-a193-4851-a46b-98417f… grassland   
    ##  7 d53aef1f-7502-4724-9be7-dd49f44… 17696e5a-5f7a-4a2b-b879-b3d6e1… grassland   
    ##  8 d53aef1f-7502-4724-9be7-dd49f44… cc8b5806-0a52-4d58-8a6c-73c902… grassland   
    ##  9 d53aef1f-7502-4724-9be7-dd49f44… b191a51d-6385-43d5-98a0-238c5e… grassland   
    ## 10 d53aef1f-7502-4724-9be7-dd49f44… 0628debb-a252-4e14-ba19-0ef29a… grassland   
    ## # … with 1,824 more rows
…
``` r
speciesNameTab <- occTrans %>% 
  select(national_species_latin = scientificName,
         fauna_europea_species_latin = scientificName,
         local_species_norwegian = vernacularName) %>% 
  mutate(national_species_latin = ifelse(national_species_latin == "Colias croceus", "Colias crocea", national_species_latin)) %>% 
  distinct()

speciesNameTab
```

    ## # A tibble: 103 x 3
    ##    national_species_latin fauna_europea_species_latin local_species_norwegian
    ##    <chr>                  <chr>                       <chr>                  
    ##  1 Vanessa cardui         Vanessa cardui              Tistelsommerfugl       
    ##  2 Pieris brassicae       Pieris brassicae            Stor Kålsommerfugl     
    ##  3 Polygonia c-album      Polygonia c-album           Hvit C                 
    ##  4 Callophrys rubi        Callophrys rubi             Grønnstjertvinge       
    ##  5 Agriades optilete      Agriades optilete           Myrblåvinge            
    ##  6 Melitaea diamina       Melitaea diamina            Mørk Rutevinge         
    ##  7 Satyrium w-album       Satyrium w-album            Almestjertvinge        
    ##  8 Issoria lathonia       Issoria lathonia            Sølvkåpe               
    ##  9 Boloria improba        Boloria improba             Dvergperlemorvinge     
    ## 10 Thecla betulae         Thecla betulae              Slåpetornstjertvinge   
    ## # … with 93 more rows
…
